…
In this call, you first specify the dataframe to use and then list all of the
column names to include in the output dataframe, with commas between each
column name. For example, to select all columns in `daily_show` except `year`
(since that information is already included in `date`), run:


```r
dplyr::select(.data = daily_show, job, date, category, guest_name)
```

```
## # A tibble: 2,693 x 4
##    job                date    category guest_name      
##    <chr>              <chr>   <chr>    <chr>           
##  1 actor              1/11/99 Acting   Michael J. Fox  
##  2 Comedian           1/12/99 Comedy   Sandra Bernhard 
##  3 television actress 1/13/99 Acting   Tracey Ullman   
##  4 film actress       1/14/99 Acting   Gillian Anderson
##  5 actor              1/18/99 Acting   David Alan Grier
##  6 actor              1/19/99 Acting   William Baldwin 
##  7 Singer-lyricist    1/20/99 Musician Michael Stipe   
##  8 model              1/21/99 Media    Carmen Electra  
##  9 actor              1/25/99 Acting   Matthew Lillard 
## 10 stand-up comedian  1/26/99 Comedy   David Cross     
## # … with 2,683 more rows
```
…
To make all the observations in the `job` column lowercase, use the 
`str_to_lower()` function from the `stringr` package within a `mutate()`
function: 


```r
library(package = "stringr")
mutate(.data = daily_show, 
       job = str_to_lower(string = job))
```

```
## # A tibble: 2,693 x 4
##    job                date    category guest_name      
##    <chr>              <chr>   <chr>    <chr>           
##  1 actor              1/11/99 Acting   Michael J. Fox  
##  2 comedian           1/12/99 Comedy   Sandra Bernhard 
##  3 television actress 1/13/99 Acting   Tracey Ullman   
##  4 film actress       1/14/99 Acting   Gillian Anderson
##  5 actor              1/18/99 Acting   David Alan Grier
##  6 actor              1/19/99 Acting   William Baldwin 
##  7 singer-lyricist    1/20/99 Musician Michael Stipe   
##  8 model              1/21/99 Media    Carmen Electra  
##  9 actor              1/25/99 Acting   Matthew Lillard 
## 10 stand-up comedian  1/26/99 Comedy   David Cross     
## # … with 2,683 more rows
```
…
