…
```r
# return a df of rows with missing values
df_mpg %>%
  filter(!complete.cases(.))
```

```
## # A tibble: 370 × 13
##       id make   model        year   cyl displ drive tran  v_class fuel_…¹ comb08
##    <dbl> <fct>  <chr>       <dbl> <dbl> <dbl> <fct> <fct> <fct>   <fct>    <dbl>
##  1 16423 Nissan Altra EV     2000    NA    NA <NA>  <NA>  Midsiz… Electr…     85
##  2 16424 Toyota RAV4 EV      2000    NA    NA 2-Wh… <NA>  Sport … Electr…     72
##  3 17328 Toyota RAV4 EV      2001    NA    NA 2-Wh… <NA>  Sport … Electr…     72
##  4 17329 Ford   Th!nk        2001    NA    NA <NA>  <NA>  Two Se… Electr…     65
##  5 17330 Ford   Explorer U…  2001    NA    NA 2-Wh… <NA>  Sport … Electr…     39
##  6 17331 Nissan Hyper-Mini   2001    NA    NA <NA>  <NA>  Two Se… Electr…     75
##  7 18290 Toyota RAV4 EV      2002    NA    NA 2-Wh… <NA>  Sport … Electr…     78
##  8 18291 Ford   Explorer U…  2002    NA    NA 2-Wh… <NA>  Sport … Electr…     39
##  9 19296 Toyota RAV4 EV      2003    NA    NA 2-Wh… <NA>  Sport … Electr…     78
## 10 30965 Ford   Ranger Pic…  2001    NA    NA 2-Wh… Auto… Standa… Electr…     58
## # … with 360 more rows, 2 more variables: highway08 <dbl>, city08 <dbl>, and
## #   abbreviated variable name ¹​fuel_type
## # ℹ Use `print(n = ...)` to see more rows, and `colnames()` to see all variable names
```
…
```r
# filter the df for rows where any of the observations contain NA
df_mpg %>% 
  dplyr::filter_all(dplyr::any_vars(is.na(.)))
```

```
## # A tibble: 370 × 13
##       id make   model        year   cyl displ drive tran  v_class fuel_…¹ comb08
##    <dbl> <fct>  <chr>       <dbl> <dbl> <dbl> <fct> <fct> <fct>   <fct>    <dbl>
##  1 16423 Nissan Altra EV     2000    NA    NA <NA>  <NA>  Midsiz… Electr…     85
##  2 16424 Toyota RAV4 EV      2000    NA    NA 2-Wh… <NA>  Sport … Electr…     72
##  3 17328 Toyota RAV4 EV      2001    NA    NA 2-Wh… <NA>  Sport … Electr…     72
##  4 17329 Ford   Th!nk        2001    NA    NA <NA>  <NA>  Two Se… Electr…     65
##  5 17330 Ford   Explorer U…  2001    NA    NA 2-Wh… <NA>  Sport … Electr…     39
##  6 17331 Nissan Hyper-Mini   2001    NA    NA <NA>  <NA>  Two Se… Electr…     75
##  7 18290 Toyota RAV4 EV      2002    NA    NA 2-Wh… <NA>  Sport … Electr…     78
##  8 18291 Ford   Explorer U…  2002    NA    NA 2-Wh… <NA>  Sport … Electr…     39
##  9 19296 Toyota RAV4 EV      2003    NA    NA 2-Wh… <NA>  Sport … Electr…     78
## 10 30965 Ford   Ranger Pic…  2001    NA    NA 2-Wh… Auto… Standa… Electr…     58
## # … with 360 more rows, 2 more variables: highway08 <dbl>, city08 <dbl>, and
## #   abbreviated variable name ¹​fuel_type
## # ℹ Use `print(n = ...)` to see more rows, and `colnames()` to see all variable names
```
…
