Chapter 7 Multivariate Data Exploration | Engineering Data Analysis in R
…
7.5.4.1 Example 1: Missing Data

The compelete.cases() function returns a logical vector indicating
which rows are complete (i.e., no missing values). The opposite of this
logical function, !complete.cases(), should return ONLY those rows that do
contain NAs. Let’s create a subset of df_mpg that only contains rows with
NA present.

# return a df of rows with missing values
df_mpg %>%
  filter(!complete.cases(.))

## # A tibble: 952 × 13
##       id make   model      year   cyl displ drive tran  v_class fuel_type comb08
##    <dbl> <fct>  <chr>     <dbl> <dbl> <dbl> <fct> <fct> <fct>   <fct>      <dbl>
##  1 16423 Nissan Altra EV   2000    NA    NA <NA>  <NA>  Midsiz… Electric…     85
##  2 16424 Toyota RAV4 EV    2000    NA    NA 2-Wh… <NA>  Sport … Electric…     72
##  3 17328 Toyota RAV4 EV    2001    NA    NA 2-Wh… <NA>  Sport … Electric…     72
##  4 17329 Ford   Th!nk      2001    NA    NA <NA>  <NA>  Two Se… Electric…     65
##  5 17330 Ford   Explorer…  2001    NA    NA 2-Wh… <NA>  Sport … Electric…     39
##  6 17331 Nissan Hyper-Mi…  2001    NA    NA <NA>  <NA>  Two Se… Electric…     75
##  7 18290 Toyota RAV4 EV    2002    NA    NA 2-Wh… <NA>  Sport … Electric…     78
##  8 18291 Ford   Explorer…  2002    NA    NA 2-Wh… <NA>  Sport … Electric…     39
##  9 19296 Toyota RAV4 EV    2003    NA    NA 2-Wh… <NA>  Sport … Electric…     78
## 10 30965 Ford   Ranger P…  2001    NA    NA 2-Wh… Auto… Standa… Electric…     58
## # ℹ 942 more rows
## # ℹ 2 more variables: highway08 <dbl>, city08 <dbl>
…
# (superseded) filter the df for rows where any of the observations contain NA
# df_mpg %>% 
#  dplyr::filter_all(dplyr::any_vars(is.na(.)))

# (updated) example to filter the df for rows containing NA 
df_mpg %>%
  filter(if_any(.cols = everything(), 
                .fns = ~ is.na(.x)))

## # A tibble: 952 × 13
##       id make   model      year   cyl displ drive tran  v_class fuel_type comb08
##    <dbl> <fct>  <chr>     <dbl> <dbl> <dbl> <fct> <fct> <fct>   <fct>      <dbl>
##  1 16423 Nissan Altra EV   2000    NA    NA <NA>  <NA>  Midsiz… Electric…     85
##  2 16424 Toyota RAV4 EV    2000    NA    NA 2-Wh… <NA>  Sport … Electric…     72
##  3 17328 Toyota RAV4 EV    2001    NA    NA 2-Wh… <NA>  Sport … Electric…     72
##  4 17329 Ford   Th!nk      2001    NA    NA <NA>  <NA>  Two Se… Electric…     65
##  5 17330 Ford   Explorer…  2001    NA    NA 2-Wh… <NA>  Sport … Electric…     39
##  6 17331 Nissan Hyper-Mi…  2001    NA    NA <NA>  <NA>  Two Se… Electric…     75
##  7 18290 Toyota RAV4 EV    2002    NA    NA 2-Wh… <NA>  Sport … Electric…     78
##  8 18291 Ford   Explorer…  2002    NA    NA 2-Wh… <NA>  Sport … Electric…     39
##  9 19296 Toyota RAV4 EV    2003    NA    NA 2-Wh… <NA>  Sport … Electric…     78
## 10 30965 Ford   Ranger P…  2001    NA    NA 2-Wh… Auto… Standa… Electric…     58
## # ℹ 942 more rows
## # ℹ 2 more variables: highway08 <dbl>, city08 <dbl>
…
